UHN plotting workshop
…
# Mutate: adding new columns or changing existing columns
.pull-left-55-inverse[

```r
mutate(penguins, 
       bill_length_log = log(bill_length_mm)) |> 
  select(bill_length_mm, bill_length_log)
```

```
## # A tibble: 344 × 2
##    bill_length_mm bill_length_log
##             <dbl>           <dbl>
##  1           39.1            3.67
##  2           39.5            3.68
##  3           40.3            3.70
##  4           NA             NA   
##  5           36.7            3.60
##  6           39.3            3.67
##  7           38.9            3.66
##  8           39.2            3.67
##  9           34.1            3.53
## 10           42              3.74
## # ℹ 334 more rows
```
…
